<?xml version="1.0" encoding="UTF-8" standalone="no"?>
<!-- Généré par Microsoft Visio, SVG Export DecoupageTER.svg Page-1 -->

<svg
   xmlns:v="http://schemas.microsoft.com/visio/2003/SVGExtensions/"
   xmlns:dc="http://purl.org/dc/elements/1.1/"
   xmlns:cc="http://creativecommons.org/ns#"
   xmlns:rdf="http://www.w3.org/1999/02/22-rdf-syntax-ns#"
   xmlns:svg="http://www.w3.org/2000/svg"
   xmlns="http://www.w3.org/2000/svg"
   xmlns:xlink="http://www.w3.org/1999/xlink"
   xmlns:sodipodi="http://sodipodi.sourceforge.net/DTD/sodipodi-0.dtd"
   xmlns:inkscape="http://www.inkscape.org/namespaces/inkscape"
   width="456.75385"
   height="592.77612"
   viewBox="0 0 365.40361 474.22099"
   xml:space="preserve"
   color-interpolation-filters="sRGB"
   class="st10"
   id="svg2"
   version="1.1"
   inkscape:version="0.48.4 r9939"
   sodipodi:docname="architecture-decoupage.svg"
   style="font-size:12px;fill:none;stroke-linecap:square;stroke-miterlimit:3;overflow:visible"><metadata
     id="metadata170"><rdf:RDF><cc:Work
         rdf:about=""><dc:format>image/svg+xml</dc:format><dc:type
           rdf:resource="http://purl.org/dc/dcmitype/StillImage" /></cc:Work></rdf:RDF></metadata><sodipodi:namedview
     pagecolor="#ffffff"
     bordercolor="#666666"
     borderopacity="1"
     objecttolerance="10"
     gridtolerance="10"
     guidetolerance="10"
     inkscape:pageopacity="0"
     inkscape:pageshadow="2"
     inkscape:window-width="1920"
     inkscape:window-height="1027"
     id="namedview168"
     showgrid="false"
     inkscape:zoom="3.5882996"
     inkscape:cx="102.85753"
     inkscape:cy="213.19062"
     inkscape:window-x="-2"
     inkscape:window-y="-3"
     inkscape:window-maximized="1"
     inkscape:current-layer="shape6-25"
     fit-margin-top="0"
     fit-margin-left="0"
     fit-margin-right="0"
     fit-margin-bottom="0" /><v:documentProperties
     v:langID="1036"
     v:metric="true"
     v:viewMarkup="false"><v:userDefs><v:ud
         v:nameU="msvSubprocessMaster"
         v:prompt=""
         v:val="VT4(Rectangle)" /><v:ud
         v:nameU="msvNoAutoConnect"
         v:val="VT0(1):26" /></v:userDefs></v:documentProperties><style
     type="text/css"
     id="style4">
		.st1 {visibility:visible}
		.st2 {fill:#5b9bd5;fill-opacity:0.22;filter:url(#filter_2);stroke:#5b9bd5;stroke-opacity:0.22}
		.st3 {fill:#5b9bd5;stroke:#c7c8c8;stroke-width:0.25}
		.st4 {fill:#feffff;font-family:Calibri;font-size:0.833336em}
		.st5 {fill:#5b9bd5;fill-opacity:0.25;filter:url(#filter_2);stroke:#5b9bd5;stroke-opacity:0.25}
		.st6 {fill:#4f87bb;stroke:#40709c;stroke-width:0.75}
		.st7 {font-size:1em}
		.st8 {marker-end:url(#mrkr4-75);stroke:#5b9bd5;stroke-linecap:round;stroke-linejoin:round;stroke-width:1}
		.st9 {fill:#5b9bd5;fill-opacity:1;stroke:#5b9bd5;stroke-opacity:1;stroke-width:0.28409090909091}
		.st10 {fill:none;fill-rule:evenodd;font-size:12px;overflow:visible;stroke-linecap:square;stroke-miterlimit:3}
	</style><defs
     id="Markers"><g
       id="lend4"><path
         d="M 2,1 0,0 2,-1 2,1"
         style="stroke:none"
         id="path8"
         inkscape:connector-curvature="0" /></g><marker
       id="mrkr4-75"
       class="st9"
       v:arrowType="4"
       v:arrowSize="2"
       v:setback="7.04"
       refX="-7.04"
       orient="auto"
       markerUnits="strokeWidth"
       overflow="visible"
       style="fill:#5b9bd5;fill-opacity:1;stroke:#5b9bd5;stroke-width:0.28409091;stroke-opacity:1;overflow:visible"><use
         xlink:href="#lend4"
         transform="scale(-3.52,-3.52)"
         id="use11"
         x="0"
         y="0"
         width="3"
         height="3" /></marker><marker
       style="fill:#5b9bd5;fill-opacity:1;stroke:#5b9bd5;stroke-width:0.28409091;stroke-opacity:1;overflow:visible"
       id="mrkr4-75-3"
       class="st9"
       v:arrowType="4"
       v:arrowSize="2"
       v:setback="7.04"
       refX="-7.04"
       orient="auto"
       markerUnits="strokeWidth"
       overflow="visible"><use
         height="3"
         width="3"
         y="0"
         x="0"
         xlink:href="#lend4"
         transform="scale(-3.52,-3.52)"
         id="use11-6" /></marker></defs><defs
     id="Filters"><filter
       id="filter_2"
       color-interpolation-filters="sRGB"><feGaussianBlur
         stdDeviation="2"
         id="feGaussianBlur15" /></filter></defs><g
     v:mID="0"
     v:index="1"
     v:groupContext="foregroundPage"
     id="g17"
     transform="translate(-230.0823,-70.373777)"><v:userDefs><v:ud
         v:nameU="msvThemeOrder"
         v:val="VT0(0):26" /></v:userDefs><title
       id="title19">Page 1</title><v:pageProperties
       v:drawingScale="0.0393701"
       v:pageScale="0.0393701"
       v:drawingUnits="24"
       v:shadowOffsetX="8.50394"
       v:shadowOffsetY="-8.50394" /><v:layer
       v:name="Lien"
       v:index="0" /><g
       id="shape5-19"
       v:mID="5"
       v:groupContext="shape"
       transform="translate(235.039,-220.315)"><title
         id="title55">Ellipse</title><desc
         id="desc57">Worker</desc><v:userDefs><v:ud
           v:nameU="visVersion"
           v:val="VT0(15):26" /></v:userDefs><v:textBlock
         v:margins="rect(4,4,4,4)"
         v:tabSpace="42.5197" /><v:textRect
         cx="36.7323"
         cy="570.787"
         width="64.29"
         height="42.8543" /><g
         id="shadow5-20"
         v:groupContext="shadow"
         v:shadowOffsetX="0.345598"
         v:shadowOffsetY="-1.97279"
         v:shadowType="1"
         transform="translate(0.345598,1.97279)"
         class="st1"
         style="visibility:visible"><path
           d="m 0,570.79 a 36.7323,24.4882 0 0 1 73.46,0 36.7323,24.4882 0 1 1 -73.46,0 z"
           class="st2"
           id="path60"
           inkscape:connector-curvature="0"
           style="fill:#5b9bd5;fill-opacity:0.22000002;stroke:#5b9bd5;stroke-opacity:0.22000002;filter:url(#filter_2)" /></g><path
         d="m 0,570.79 a 36.7323,24.4882 0 0 1 73.46,0 36.7323,24.4882 0 1 1 -73.46,0 z"
         class="st3"
         id="path62"
         inkscape:connector-curvature="0"
         style="fill:#5b9bd5;stroke:#c7c8c8;stroke-width:0.25" /><text
         x="18.829609"
         y="575.18903"
         class="st4"
         v:langID="1036"
         id="text64"
         style="fill:#feffff;font-family:Calibri"><v:paragraph
   v:horizAlign="1" /><v:tabList />Worker</text>
</g><g
       id="shape6-25"
       v:mID="6"
       v:groupContext="shape"
       transform="translate(328.819,-220.315)"><title
         id="title67">Ellipse.6</title><desc
         id="desc69">Worker</desc><v:userDefs><v:ud
           v:nameU="visVersion"
           v:val="VT0(15):26" /></v:userDefs><v:textBlock
         v:margins="rect(4,4,4,4)"
         v:tabSpace="42.5197" /><v:textRect
         cx="36.7323"
         cy="570.787"
         width="64.29"
         height="42.8543" /><g
         id="shadow6-26"
         v:groupContext="shadow"
         v:shadowOffsetX="0.345598"
         v:shadowOffsetY="-1.97279"
         v:shadowType="1"
         transform="translate(0.345598,1.97279)"
         class="st1"
         style="visibility:visible"><path
           d="m 0,570.79 a 36.7323,24.4882 0 0 1 73.46,0 36.7323,24.4882 0 1 1 -73.46,0 z"
           class="st2"
           id="path72"
           inkscape:connector-curvature="0"
           style="fill:#5b9bd5;fill-opacity:0.22000002;stroke:#5b9bd5;stroke-opacity:0.22000002;filter:url(#filter_2)" /></g><path
         d="m 0,570.79 a 36.7323,24.4882 0 0 1 73.46,0 36.7323,24.4882 0 1 1 -73.46,0 z"
         class="st3"
         id="path74"
         inkscape:connector-curvature="0"
         style="fill:#5b9bd5;stroke:#c7c8c8;stroke-width:0.25" /><text
         x="18.829609"
         y="575.18903"
         class="st4"
         v:langID="1036"
         id="text76"
         style="font-size:12px;fill:#feffff;font-family:Calibri"><v:paragraph
   v:horizAlign="1" /><v:tabList />Worker</text>
</g><g
       id="shape7-31"
       v:mID="7"
       v:groupContext="shape"
       transform="translate(422.598,-220.315)"><title
         id="title79">Ellipse.7</title><desc
         id="desc81">Worker</desc><v:userDefs><v:ud
           v:nameU="visVersion"
           v:val="VT0(15):26" /></v:userDefs><v:textBlock
         v:margins="rect(4,4,4,4)"
         v:tabSpace="42.5197" /><v:textRect
         cx="36.7323"
         cy="570.787"
         width="64.29"
         height="42.8543" /><g
         id="shadow7-32"
         v:groupContext="shadow"
         v:shadowOffsetX="0.345598"
         v:shadowOffsetY="-1.97279"
         v:shadowType="1"
         transform="translate(0.345598,1.97279)"
         class="st1"
         style="visibility:visible"><path
           d="m 0,570.79 a 36.7323,24.4882 0 0 1 73.46,0 36.7323,24.4882 0 1 1 -73.46,0 z"
           class="st2"
           id="path84"
           inkscape:connector-curvature="0"
           style="fill:#5b9bd5;fill-opacity:0.22000002;stroke:#5b9bd5;stroke-opacity:0.22000002;filter:url(#filter_2)" /></g><path
         d="m 0,570.79 a 36.7323,24.4882 0 0 1 73.46,0 36.7323,24.4882 0 1 1 -73.46,0 z"
         class="st3"
         id="path86"
         inkscape:connector-curvature="0"
         style="fill:#5b9bd5;stroke:#c7c8c8;stroke-width:0.25" /><text
         x="18.829609"
         y="575.18903"
         class="st4"
         v:langID="1036"
         id="text88"
         style="fill:#feffff;font-family:Calibri"><v:paragraph
   v:horizAlign="1" /><v:tabList />Worker</text>
</g><g
       id="shape8-37"
       v:mID="8"
       v:groupContext="shape"
       transform="translate(516.378,-220.315)"><title
         id="title91">Ellipse.8</title><desc
         id="desc93">Worker</desc><v:userDefs><v:ud
           v:nameU="visVersion"
           v:val="VT0(15):26" /></v:userDefs><v:textBlock
         v:margins="rect(4,4,4,4)"
         v:tabSpace="42.5197" /><v:textRect
         cx="36.7323"
         cy="570.787"
         width="64.29"
         height="42.8543" /><g
         id="shadow8-38"
         v:groupContext="shadow"
         v:shadowOffsetX="0.345598"
         v:shadowOffsetY="-1.97279"
         v:shadowType="1"
         transform="translate(0.345598,1.97279)"
         class="st1"
         style="visibility:visible"><path
           d="m 0,570.79 a 36.7323,24.4882 0 0 1 73.46,0 36.7323,24.4882 0 1 1 -73.46,0 z"
           class="st2"
           id="path96"
           inkscape:connector-curvature="0"
           style="fill:#5b9bd5;fill-opacity:0.22000002;stroke:#5b9bd5;stroke-opacity:0.22000002;filter:url(#filter_2)" /></g><path
         d="m 0,570.79 a 36.7323,24.4882 0 0 1 73.46,0 36.7323,24.4882 0 1 1 -73.46,0 z"
         class="st3"
         id="path98"
         inkscape:connector-curvature="0"
         style="fill:#5b9bd5;stroke:#c7c8c8;stroke-width:0.25" /><text
         x="18.829609"
         y="575.18903"
         class="st4"
         v:langID="1036"
         id="text100"
         style="fill:#feffff;font-family:Calibri"><v:paragraph
   v:horizAlign="1" /><v:tabList />Worker</text>
</g><g
       id="shape9-43"
       v:mID="9"
       v:groupContext="shape"
       transform="matrix(0.82688825,-0.56236628,0.56236628,0.82688825,-62.9917,-166.242)"><title
         id="title103">Flèche simple</title><v:userDefs><v:ud
           v:nameU="visVersion"
           v:val="VT0(15):26" /><v:ud
           v:nameU="ArrowType"
           v:prompt=""
           v:val="VT0(2):26" /></v:userDefs><g
         id="shadow9-44"
         v:groupContext="shadow"
         v:shadowOffsetX="0.345598"
         v:shadowOffsetY="-1.97279"
         v:shadowType="1"
         transform="translate(-0.823662,1.82563)"
         class="st1"
         style="visibility:visible"><path
           d="m 0,595.28 11.34,-11.34 0,5.67 158.78,0 0,5.67 0,5.66 -158.78,0 0,5.67 L 0,595.28 z"
           class="st5"
           id="path106"
           inkscape:connector-curvature="0"
           style="fill:#5b9bd5;fill-opacity:0.25;stroke:#5b9bd5;stroke-opacity:0.25;filter:url(#filter_2)" /></g><path
         d="m 0,595.28 11.34,-11.34 0,5.67 158.78,0 0,5.67 0,5.66 -158.78,0 0,5.67 L 0,595.28 z"
         class="st6"
         id="path108"
         inkscape:connector-curvature="0"
         style="fill:#4f87bb;stroke:#40709c;stroke-width:0.75" /></g><g
       id="shape11-48"
       v:mID="11"
       v:groupContext="shape"
       transform="matrix(0.4401053,-0.89794617,0.89794617,0.4401053,-168.974,64.0007)"><title
         id="title111">Flèche simple.11</title><v:userDefs><v:ud
           v:nameU="visVersion"
           v:val="VT0(15):26" /><v:ud
           v:nameU="ArrowType"
           v:prompt=""
           v:val="VT0(2):26" /></v:userDefs><g
         id="shadow11-49"
         v:groupContext="shadow"
         v:shadowOffsetX="0.345598"
         v:shadowOffsetY="-1.97279"
         v:shadowType="1"
         transform="translate(-1.61936,1.17856)"
         class="st1"
         style="visibility:visible"><path
           d="m 0,595.28 11.34,-11.34 0,5.67 95.2,0 0,5.67 0,5.66 -95.2,0 0,5.67 L 0,595.28 z"
           class="st5"
           id="path114"
           inkscape:connector-curvature="0"
           style="fill:#5b9bd5;fill-opacity:0.25;stroke:#5b9bd5;stroke-opacity:0.25;filter:url(#filter_2)" /></g><path
         d="m 0,595.28 11.34,-11.34 0,5.67 95.2,0 0,5.67 0,5.66 -95.2,0 0,5.67 L 0,595.28 z"
         class="st6"
         id="path116"
         inkscape:connector-curvature="0"
         style="fill:#4f87bb;stroke:#40709c;stroke-width:0.75" /></g><g
       id="shape12-53"
       v:mID="12"
       v:groupContext="shape"
       transform="matrix(-0.44011157,-0.8979431,0.8979431,-0.44011157,-75.1949,587.968)"><title
         id="title119">Flèche simple.12</title><v:userDefs><v:ud
           v:nameU="visVersion"
           v:val="VT0(15):26" /><v:ud
           v:nameU="ArrowType"
           v:prompt=""
           v:val="VT0(2):26" /></v:userDefs><g
         id="shadow12-54"
         v:groupContext="shadow"
         v:shadowOffsetX="0.345598"
         v:shadowOffsetY="-1.97279"
         v:shadowType="1"
         transform="translate(-1.92356,-0.557906)"
         class="st1"
         style="visibility:visible"><path
           d="m 0,595.28 11.34,-11.34 0,5.67 95.2,0 0,5.67 0,5.66 -95.2,0 0,5.67 L 0,595.28 z"
           class="st5"
           id="path122"
           inkscape:connector-curvature="0"
           style="fill:#5b9bd5;fill-opacity:0.25;stroke:#5b9bd5;stroke-opacity:0.25;filter:url(#filter_2)" /></g><path
         d="m 0,595.28 11.34,-11.34 0,5.67 95.2,0 0,5.67 0,5.66 -95.2,0 0,5.67 L 0,595.28 z"
         class="st6"
         id="path124"
         inkscape:connector-curvature="0"
         style="fill:#4f87bb;stroke:#40709c;stroke-width:0.75" /></g><g
       id="shape13-58"
       v:mID="13"
       v:groupContext="shape"
       transform="matrix(-0.82688432,-0.56237205,0.56237205,-0.82688432,218.347,818.21)"><title
         id="title127">Flèche simple.13</title><v:userDefs><v:ud
           v:nameU="visVersion"
           v:val="VT0(15):26" /><v:ud
           v:nameU="ArrowType"
           v:prompt=""
           v:val="VT0(2):26" /></v:userDefs><g
         id="shadow13-59"
         v:groupContext="shadow"
         v:shadowOffsetX="0.345598"
         v:shadowOffsetY="-1.97279"
         v:shadowType="1"
         transform="translate(-1.3952,-1.43692)"
         class="st1"
         style="visibility:visible"><path
           d="m 0,595.28 11.34,-11.34 0,5.67 158.78,0 0,5.67 0,5.66 -158.78,0 0,5.67 L 0,595.28 z"
           class="st5"
           id="path130"
           inkscape:connector-curvature="0"
           style="fill:#5b9bd5;fill-opacity:0.25;stroke:#5b9bd5;stroke-opacity:0.25;filter:url(#filter_2)" /></g><path
         d="m 0,595.28 11.34,-11.34 0,5.67 158.78,0 0,5.67 0,5.66 -158.78,0 0,5.67 L 0,595.28 z"
         class="st6"
         id="path132"
         inkscape:connector-curvature="0"
         style="fill:#4f87bb;stroke:#40709c;stroke-width:0.75" /></g><g
       id="group2-1"
       transform="translate(328.819,-354.331)"
       v:mID="2"
       v:groupContext="group"><v:userDefs><v:ud
           v:nameU="visVersion"
           v:prompt=""
           v:val="VT0(15):26" /></v:userDefs><title
         id="title22">Cylindre</title><desc
         id="desc24">Graphe</desc><g
         id="shape3-2"
         v:mID="3"
         v:groupContext="shape"><title
           id="title27">Feuille.3</title><v:userDefs><v:ud
             v:nameU="ControlHalfHeight"
             v:prompt=""
             v:val="VT0(0.11811023622047):24" /><v:ud
             v:nameU="FillForegnd"
             v:prompt=""
             v:val="VT5(1)" /><v:ud
             v:nameU="ControlHalfHeight"
             v:prompt=""
             v:val="VT0(0.23228346456693):1" /><v:ud
             v:nameU="FillForegnd"
             v:prompt=""
             v:val="VT5(#5b9bd5)" /></v:userDefs><g
           id="shadow3-3"
           v:groupContext="shadow"
           v:shadowOffsetX="0.345598"
           v:shadowOffsetY="-1.97279"
           v:shadowType="1"
           transform="translate(0.345598,1.97279)"
           class="st1"
           style="visibility:visible"><path
             d="m 0,578.55 a 83.622,16.7244 -180 1 0 167.24,0 l 0,-133.79 -167.24,0 0,133.79 z"
             class="st2"
             id="path30"
             inkscape:connector-curvature="0"
             style="fill:#5b9bd5;fill-opacity:0.22000002;stroke:#5b9bd5;stroke-opacity:0.22000002;filter:url(#filter_2)" /></g><path
           d="m 0,578.55 a 83.622,16.7244 -180 1 0 167.24,0 l 0,-133.79 -167.24,0 0,133.79 z"
           class="st3"
           id="path32"
           inkscape:connector-curvature="0"
           style="fill:#5b9bd5;stroke:#c7c8c8;stroke-width:0.25" /></g><g
         id="shape2-7"
         v:mID="2"
         v:groupContext="groupContent"><v:textBlock
           v:margins="rect(4,4,4,4)"
           v:tabSpace="42.5197" /><v:textRect
           cx="83.622"
           cy="511.654"
           width="167.25"
           height="167.244" /><g
           id="shadow2-8"
           v:groupContext="shadow"
           v:shadowOffsetX="0.345598"
           v:shadowOffsetY="-1.97279"
           v:shadowType="1"
           transform="translate(0.345598,1.97279)"
           class="st1"
           style="visibility:visible"><ellipse
             cx="83.622002"
             cy="444.75601"
             rx="83.622002"
             ry="16.7244"
             class="st2"
             id="ellipse36"
             d="m 167.244,444.75601 c 0,9.23663 -37.43884,16.7244 -83.621998,16.7244 C 37.438845,461.48041 0,453.99264 0,444.75601 c 0,-9.23663 37.438845,-16.7244 83.622002,-16.7244 46.183158,0 83.621998,7.48777 83.621998,16.7244 z"
             sodipodi:cx="83.622002"
             sodipodi:cy="444.75601"
             sodipodi:rx="83.622002"
             sodipodi:ry="16.7244"
             style="fill:#5b9bd5;fill-opacity:0.22000002;stroke:#5b9bd5;stroke-opacity:0.22000002;filter:url(#filter_2)" /></g><ellipse
           cx="83.622002"
           cy="444.75601"
           rx="83.622002"
           ry="16.7244"
           class="st3"
           id="ellipse38"
           d="m 167.244,444.75601 c 0,9.23663 -37.43884,16.7244 -83.621998,16.7244 C 37.438845,461.48041 0,453.99264 0,444.75601 c 0,-9.23663 37.438845,-16.7244 83.622002,-16.7244 46.183158,0 83.621998,7.48777 83.621998,16.7244 z"
           sodipodi:cx="83.622002"
           sodipodi:cy="444.75601"
           sodipodi:rx="83.622002"
           sodipodi:ry="16.7244"
           style="fill:#5b9bd5;stroke:#c7c8c8;stroke-width:0.25" /><text
           x="66.030052"
           y="504.44724"
           class="st4"
           v:langID="1036"
           id="text40"
           style="fill:#feffff;font-family:Calibri"><v:paragraph
   v:horizAlign="1" /><v:tabList />Graphe</text>
</g></g><g
       id="shape14-63"
       v:mID="14"
       v:groupContext="shape"
       transform="translate(357.874,-57.9528)"><title
         id="title135">Cercle</title><desc
         id="desc137">Coefficients de clustering</desc><v:userDefs><v:ud
           v:nameU="visVersion"
           v:val="VT0(15):26" /></v:userDefs><v:textBlock
         v:margins="rect(4,4,4,4)"
         v:tabSpace="42.5197" /><v:textRect
         cx="56.6929"
         cy="538.583"
         width="99.22"
         height="85.0394" /><g
         id="shadow14-64"
         v:groupContext="shadow"
         v:shadowOffsetX="0.345598"
         v:shadowOffsetY="-1.97279"
         v:shadowType="1"
         transform="translate(0.345598,1.97279)"
         class="st1"
         style="visibility:visible"><path
           d="m 0,538.58 a 56.695,56.695 0 0 1 113.39,0 56.695,56.695 0 1 1 -113.39,0 z"
           class="st2"
           id="path140"
           inkscape:connector-curvature="0"
           style="fill:#5b9bd5;fill-opacity:0.22000002;stroke:#5b9bd5;stroke-opacity:0.22000002;filter:url(#filter_2)" /></g><path
         d="m 0,538.58 a 56.695,56.695 0 0 1 113.39,0 56.695,56.695 0 1 1 -113.39,0 z"
         class="st3"
         id="path142"
         inkscape:connector-curvature="0"
         style="fill:#5b9bd5;stroke:#c7c8c8;stroke-width:0.25" /><text
         x="26.450001"
         y="535.58002"
         class="st4"
         v:langID="1036"
         id="text3147"
         style="fill:#feffff;font-family:Calibri"><tspan
           x="36.810001"
           class="st7"
           id="tspan3149" /></text>
<g
         id="g3169"
         transform="translate(0,-0.10777466)"><text
           style="fill:#feffff;font-family:Calibri"
           id="text144"
           v:langID="1036"
           class="st4"
           y="535.58002"
           x="20.695">Coefficients de</text>
<text
           style="fill:#feffff;font-family:Calibri"
           id="text3159"
           v:langID="1036"
           class="st4"
           y="548.06506"
           x="22.484415"><tspan
             id="tspan3161"
             class="st7"
             dy="0"
             x="32.844414">clustering</tspan></text>
</g><flowRoot
         xml:space="preserve"
         id="flowRoot3151"
         style="font-size:40px;font-style:normal;font-variant:normal;font-weight:normal;font-stretch:normal;line-height:125%;letter-spacing:0px;word-spacing:0px;fill:#000000;fill-opacity:1;stroke:none;font-family:Exmouth;-inkscape-font-specification:Exmouth"><flowRegion
           id="flowRegion3153"><rect
             id="rect3155"
             width="21.179949"
             height="46.261467"
             x="480.45041"
             y="596.94995" /></flowRegion><flowPara
           id="flowPara3157" /></flowRoot></g><g
       id="shape19-70"
       v:mID="19"
       v:groupContext="shape"
       v:layerMember="0"
       transform="translate(271.772,-220.315)"><title
         id="title149">Lien dynamique</title><path
         d="m 0,595.28 0,105.66 79.06,0"
         class="st8"
         id="path151"
         inkscape:connector-curvature="0"
         style="stroke:#5b9bd5;stroke-width:1;stroke-linecap:round;stroke-linejoin:round;marker-end:url(#mrkr4-75)" /></g><g
       id="shape20-76"
       v:mID="20"
       v:groupContext="shape"
       v:layerMember="0"
       transform="translate(362.926,-220.315)"><title
         id="title154">Lien dynamique.20</title><path
         d="m 2.63,595.28 0,10.63 8.92,0 0,47.9"
         class="st8"
         id="path156"
         inkscape:connector-curvature="0"
         style="stroke:#5b9bd5;stroke-width:1;stroke-linecap:round;stroke-linejoin:round;marker-end:url(#mrkr4-75)" /></g><g
       id="shape22-86"
       v:mID="22"
       v:groupContext="shape"
       v:layerMember="0"
       transform="translate(553.11,-220.315)"><title
         id="title164">Lien dynamique.22</title><path
         d="m 0,595.28 0,105.66 -74.81,0"
         class="st8"
         id="path166"
         inkscape:connector-curvature="0"
         style="stroke:#5b9bd5;stroke-width:1;stroke-linecap:round;stroke-linejoin:round;marker-end:url(#mrkr4-75)" /></g><g
       id="shape4-13"
       v:mID="4"
       v:groupContext="shape"
       transform="translate(375.709,-364.961)"><title
         id="title43">Rectangle</title><desc
         id="desc45">Tâches</desc><v:userDefs><v:ud
           v:nameU="visVersion"
           v:val="VT0(15):26" /></v:userDefs><v:textBlock
         v:margins="rect(4,4,4,4)"
         v:tabSpace="42.5197" /><v:textRect
         cx="36.7323"
         cy="567.726"
         width="73.47"
         height="55.0984" /><g
         id="shadow4-14"
         v:groupContext="shadow"
         v:shadowOffsetX="0.345598"
         v:shadowOffsetY="-1.97279"
         v:shadowType="1"
         transform="translate(0.345598,1.97279)"
         class="st1"
         style="visibility:visible"><rect
           x="0"
           y="540.177"
           width="73.4646"
           height="55.0984"
           class="st5"
           id="rect48"
           style="fill:#5b9bd5;fill-opacity:0.25;stroke:#5b9bd5;stroke-opacity:0.25;filter:url(#filter_2)" /></g><rect
         x="0.34429985"
         y="540.177"
         width="73.4646"
         height="55.0984"
         class="st6"
         id="rect50"
         style="fill:#4f87bb;stroke:#40709c;stroke-width:0.75" /><text
         x="20.84613"
         y="571.84827"
         class="st4"
         v:langID="1036"
         id="text52"
         style="fill:#feffff;font-family:Calibri"><v:paragraph
   v:horizAlign="1" /><v:tabList />Tâches</text>
</g><g
       id="shape20-76-7"
       v:mID="20"
       v:groupContext="shape"
       v:layerMember="0"
       transform="matrix(-1,0,0,1,466.21226,-220.31465)"><title
         id="title154-5">Lien dynamique.20</title><path
         inkscape:connector-curvature="0"
         d="m 2.63,595.28 0,10.63 8.92,0 0,47.9"
         class="st8"
         id="path156-3"
         style="stroke:#5b9bd5;stroke-width:1;stroke-linecap:round;stroke-linejoin:round;marker-end:url(#mrkr4-75)" /></g></g></svg>